{
    "fixed_height_still": {
        "url": "https:\/\/media3.giphy.com\/media\/HqknZT0e89VcY\/200_s.gif",
        "width": "433",
        "height": "200"
    },
    "original_still": {
        "url": "https:\/\/media3.giphy.com\/media\/HqknZT0e89VcY\/giphy_s.gif",
        "width": "500",
        "height": "231"
    },
    "fixed_width": {
        "url": "https:\/\/media3.giphy.com\/media\/HqknZT0e89VcY\/200w.gif",
        "width": "200",
        "height": "92",
        "size": "75563",
        "mp4": "https:\/\/media3.giphy.com\/media\/HqknZT0e89VcY\/200w.mp4",
        "mp4_size": "33482",
        "webp": "https:\/\/media3.giphy.com\/media\/HqknZT0e89VcY\/200w.webp",
        "webp_size": "92560"
    },
    "fixed_height_small_still": {
        "url": "https:\/\/media3.giphy.com\/media\/HqknZT0e89VcY\/100_s.gif",
        "width": "216",
        "height": "100"
    },
    "fixed_height_downsampled": {
        "url": "https:\/\/media3.giphy.com\/media\/HqknZT0e89VcY\/200_d.gif",
        "width": "433",
        "height": "200",
        "size": "474747",
        "webp": "https:\/\/media3.giphy.com\/media\/HqknZT0e89VcY\/200_d.webp",
        "webp_size": "192866"
    },
    "preview": {
        "width": "302",
        "height": "138",
        "mp4": "https:\/\/media3.giphy.com\/media\/HqknZT0e89VcY\/giphy-preview.mp4",
        "mp4_size": "40946"
    },
    "fixed_height_small": {
        "url": "https:\/\/media3.giphy.com\/media\/HqknZT0e89VcY\/100.gif",
        "width": "216",
        "height": "100",
        "size": "256426",
        "mp4": "https:\/\/media3.giphy.com\/media\/HqknZT0e89VcY\/100.mp4",
        "mp4_size": "118254",
        "webp": "https:\/\/media3.giphy.com\/media\/HqknZT0e89VcY\/100.webp",
        "webp_size": "95262"
    },
    "downsized_still": {
        "url": "https:\/\/media3.giphy.com\/media\/HqknZT0e89VcY\/giphy-downsized_s.gif",
        "width": "500",
        "height": "231",
        "size": "95905"
    },
    "downsized": {
        "url": "https:\/\/media3.giphy.com\/media\/HqknZT0e89VcY\/giphy-downsized.gif",
        "width": "500",
        "height": "231",
        "size": "992650"
    },
    "downsized_large": {
        "url": "https:\/\/media3.giphy.com\/media\/HqknZT0e89VcY\/giphy.gif",
        "width": "500",
        "height": "231",
        "size": "992650"
    },
    "fixed_width_small_still": {
        "url": "https:\/\/media3.giphy.com\/media\/HqknZT0e89VcY\/100w_s.gif",
        "width": "100",
        "height": "46"
    },
    "preview_webp": {
        "url": "https:\/\/media3.giphy.com\/media\/HqknZT0e89VcY\/giphy-preview.webp",
        "width": "177",
        "height": "82",
        "size": "48262"
    },
    "fixed_width_still": {
        "url": "https:\/\/media3.giphy.com\/media\/HqknZT0e89VcY\/200w_s.gif",
        "width": "200",
        "height": "92"
    },
    "fixed_width_small": {
        "url": "https:\/\/media3.giphy.com\/media\/HqknZT0e89VcY\/100w.gif",
        "width": "100",
        "height": "46",
        "size": "75563",
        "mp4": "https:\/\/media3.giphy.com\/media\/HqknZT0e89VcY\/100w.mp4",
        "mp4_size": "38123",
        "webp": "https:\/\/media3.giphy.com\/media\/HqknZT0e89VcY\/100w.webp",
        "webp_size": "24520"
    },
    "downsized_small": {
        "width": "500",
        "height": "230",
        "mp4": "https:\/\/media3.giphy.com\/media\/HqknZT0e89VcY\/giphy-downsized-small.mp4",
        "mp4_size": "135375"
    },
    "fixed_width_downsampled": {
        "url": "https:\/\/media3.giphy.com\/media\/HqknZT0e89VcY\/200w_d.gif",
        "width": "200",
        "height": "92",
        "size": "115994",
        "webp": "https:\/\/media3.giphy.com\/media\/HqknZT0e89VcY\/200w_d.webp",
        "webp_size": "46560"
    },
    "downsized_medium": {
        "url": "https:\/\/media3.giphy.com\/media\/HqknZT0e89VcY\/giphy.gif",
        "width": "500",
        "height": "231",
        "size": "992650"
    },
    "original": {
        "url": "https:\/\/media3.giphy.com\/media\/HqknZT0e89VcY\/giphy.gif",
        "width": "500",
        "height": "231",
        "size": "992650",
        "frames": "12",
        "mp4": "https:\/\/media3.giphy.com\/media\/HqknZT0e89VcY\/giphy.mp4",
        "mp4_size": "102415",
        "webp": "https:\/\/media3.giphy.com\/media\/HqknZT0e89VcY\/giphy.webp",
        "webp_size": "483044"
    },
    "fixed_height": {
        "url": "https:\/\/media3.giphy.com\/media\/HqknZT0e89VcY\/200.gif",
        "width": "433",
        "height": "200",
        "size": "256426",
        "mp4": "https:\/\/media3.giphy.com\/media\/HqknZT0e89VcY\/200.mp4",
        "mp4_size": "20252",
        "webp": "https:\/\/media3.giphy.com\/media\/HqknZT0e89VcY\/200.webp",
        "webp_size": "385122"
    },
    "looping": {
        "mp4": "https:\/\/media3.giphy.com\/media\/HqknZT0e89VcY\/giphy-loop.mp4",
        "mp4_size": "4776019"
    },
    "original_mp4": {
        "width": "480",
        "height": "220",
        "mp4": "https:\/\/media3.giphy.com\/media\/HqknZT0e89VcY\/giphy.mp4",
        "mp4_size": "102415"
    },
    "preview_gif": {
        "url": "https:\/\/media3.giphy.com\/media\/HqknZT0e89VcY\/giphy-preview.gif",
        "width": "152",
        "height": "70",
        "size": "43551"
    },
    "480w_still": {
        "url": "https:\/\/media0.giphy.com\/media\/HqknZT0e89VcY\/480w_s.jpg",
        "width": "480",
        "height": "222"
    }
}
